{
  "window": {
    "caption": "str(notnull=True)"
  },
  "discord_rpc": {
    "client_id": "int(str_length=18)",
    "large_image": "str(notnull=True)",
    "development_image": "str(notnull=True)"
  },
  "credits": {
    "company_name": "str(notnull=True)",
    "game_name": "str(notnull=True)",
    "copyright_year": "int(str_length=4, range_=[1900, 9000])"
  }
}